%YAML 1.1
%TAG !u! tag:unity3d.com,2011:
--- !u!1045 &1
EditorBuildSettings:
  m_ObjectHideFlags: 0
  serializedVersion: 2
  m_Scenes:
  - enabled: 1
    path: Assets/Scenes/MainMenuScene.unity
    guid: c76743e449f8daa4b89f77aab1e6b3e7
  - enabled: 1
    path: Assets/Scenes/GameScene.unity
    guid: 2cda990e2423bbf4892e6590ba056729
  - enabled: 1
    path: Assets/Scenes/TestScene.unity
    guid: 3d7d08ade7d40624387e1bf54f7853c7
  m_configObjects: {}
